<?xml version="1.0" encoding="utf-8"?>
<!-- Generator: Adobe Illustrator 23.0.1, SVG Export Plug-In . SVG Version: 6.00 Build 0)  -->
<svg version="1.1" id="Layer_1" xmlns="http://www.w3.org/2000/svg" xmlns:xlink="http://www.w3.org/1999/xlink" x="0px" y="0px"
    viewBox="0 0 35 35" style="enable-background:new 0 0 35 35;" xml:space="preserve">
    <rect x="16.3" y="0" transform="matrix(0.7071 -0.7071 0.7071 0.7071 -7.2487 17.5)" width="2.5" height="35"/>
    <rect x="16.3" y="0" transform="matrix(0.7071 0.7071 -0.7071 0.7071 17.5 -7.2487)" width="2.5" height="35"/>
</svg>
