<?xml version="1.0" encoding="UTF-8"?>
<svg width="107px" height="107px" viewBox="0 0 107 107" version="1.1" xmlns="http://www.w3.org/2000/svg" xmlns:xlink="http://www.w3.org/1999/xlink">
    <!-- Generator: Sketch 52.5 (67469) - http://www.bohemiancoding.com/sketch -->
    <title>Elements/dots/Square</title>
    <desc>Created with Sketch.</desc>
    <g id="02-Modules-••" stroke="none" stroke-width="1" fill="none" fill-rule="evenodd" fill-opacity="0.25">
        <g id="02-All-Modules" transform="translate(-197.000000, -1994.000000)" fill="#FFFFFF">
            <g id="Group-2" transform="translate(0.000000, 1847.000000)">
                <g id="Group">
                    <g id="Elements/Dots/Square/White" transform="translate(197.000000, 147.000000)">
                        <path d="M1.5,104 C0.671097285,104 0,104.671946 0,105.500848 C0,106.328054 0.671097285,107 1.5,107 C2.32890271,107 3,106.328054 3,105.500848 C3,104.671946 2.32890271,104 1.5,104 M1.5,92 C0.671097285,92 0,92.6719457 0,93.5008484 C0,94.3280543 0.671097285,95 1.5,95 C2.32890271,95 3,94.3280543 3,93.5008484 C3,92.6719457 2.32890271,92 1.5,92 M1.5,81 C0.671097285,81 0,81.6719457 0,82.5008484 C0,83.3280543 0.671097285,84 1.5,84 C2.32890271,84 3,83.3280543 3,82.5008484 C3,81.6719457 2.32890271,81 1.5,81 M1.5,69 C0.671097285,69 0,69.6719457 0,70.5 C0,71.3289027 0.671097285,72 1.5,72 C2.32890271,72 3,71.3289027 3,70.5 C3,69.6719457 2.32890271,69 1.5,69 M1.5,58 C0.671097285,58 0,58.6719457 0,59.5 C0,60.3289027 0.671097285,61 1.5,61 C2.32890271,61 3,60.3289027 3,59.5 C3,58.6719457 2.32890271,58 1.5,58 M1.5,46 C0.671097285,46 0,46.6719457 0,47.5 C0,48.3289027 0.671097285,49 1.5,49 C2.32890271,49 3,48.3289027 3,47.5 C3,46.6719457 2.32890271,46 1.5,46 M1.5,34 C0.671097285,34 0,34.6719457 0,35.5 C0,36.3289027 0.671097285,37 1.5,37 C2.32890271,37 3,36.3289027 3,35.5 C3,34.6719457 2.32890271,34 1.5,34 M1.5,23 C0.671097285,23 0,23.6719457 0,24.5 C0,25.3289027 0.671097285,26 1.5,26 C2.32890271,26 3,25.3289027 3,24.5 C3,23.6719457 2.32890271,23 1.5,23 M1.5,11 C0.671097285,11 0,11.6719457 0,12.5 C0,13.3289027 0.671097285,14 1.5,14 C2.32890271,14 3,13.3289027 3,12.5 C3,11.6719457 2.32890271,11 1.5,11 M1.5,0 C0.671097285,0 0,0.671945701 0,1.5 C0,2.32890271 0.671097285,3 1.5,3 C2.32890271,3 3,2.32890271 3,1.5 C3,0.671945701 2.32890271,0 1.5,0 M12.5,104 C11.6710973,104 11,104.671946 11,105.500848 C11,106.328054 11.6710973,107 12.5,107 C13.3289027,107 14,106.328054 14,105.500848 C14,104.671946 13.3289027,104 12.5,104 M12.5,92 C11.6710973,92 11,92.6719457 11,93.5008484 C11,94.3280543 11.6710973,95 12.5,95 C13.3289027,95 14,94.3280543 14,93.5008484 C14,92.6719457 13.3289027,92 12.5,92 M12.5,81 C11.6710973,81 11,81.6719457 11,82.5008484 C11,83.3280543 11.6710973,84 12.5,84 C13.3289027,84 14,83.3280543 14,82.5008484 C14,81.6719457 13.3289027,81 12.5,81 M12.5,69 C11.6710973,69 11,69.6719457 11,70.5 C11,71.3289027 11.6710973,72 12.5,72 C13.3289027,72 14,71.3289027 14,70.5 C14,69.6719457 13.3289027,69 12.5,69 M12.5,58 C11.6710973,58 11,58.6719457 11,59.5 C11,60.3289027 11.6710973,61 12.5,61 C13.3289027,61 14,60.3289027 14,59.5 C14,58.6719457 13.3289027,58 12.5,58 M12.5,46 C11.6710973,46 11,46.6719457 11,47.5 C11,48.3289027 11.6710973,49 12.5,49 C13.3289027,49 14,48.3289027 14,47.5 C14,46.6719457 13.3289027,46 12.5,46 M12.5,34 C11.6710973,34 11,34.6719457 11,35.5 C11,36.3289027 11.6710973,37 12.5,37 C13.3289027,37 14,36.3289027 14,35.5 C14,34.6719457 13.3289027,34 12.5,34 M12.5,23 C11.6710973,23 11,23.6719457 11,24.5 C11,25.3289027 11.6710973,26 12.5,26 C13.3289027,26 14,25.3289027 14,24.5 C14,23.6719457 13.3289027,23 12.5,23 M12.5,11 C11.6710973,11 11,11.6719457 11,12.5 C11,13.3289027 11.6710973,14 12.5,14 C13.3289027,14 14,13.3289027 14,12.5 C14,11.6719457 13.3289027,11 12.5,11 M12.5,0 C11.6710973,0 11,0.671945701 11,1.5 C11,2.32890271 11.6710973,3 12.5,3 C13.3289027,3 14,2.32890271 14,1.5 C14,0.671945701 13.3289027,0 12.5,0 M24.5,104 C23.6710973,104 23,104.671946 23,105.500848 C23,106.328054 23.6710973,107 24.5,107 C25.3289027,107 26,106.328054 26,105.500848 C26,104.671946 25.3289027,104 24.5,104 M24.5,92 C23.6710973,92 23,92.6719457 23,93.5008484 C23,94.3280543 23.6710973,95 24.5,95 C25.3289027,95 26,94.3280543 26,93.5008484 C26,92.6719457 25.3289027,92 24.5,92 M24.5,81 C23.6710973,81 23,81.6719457 23,82.5008484 C23,83.3280543 23.6710973,84 24.5,84 C25.3289027,84 26,83.3280543 26,82.5008484 C26,81.6719457 25.3289027,81 24.5,81 M24.5,69 C23.6710973,69 23,69.6719457 23,70.5 C23,71.3289027 23.6710973,72 24.5,72 C25.3289027,72 26,71.3289027 26,70.5 C26,69.6719457 25.3289027,69 24.5,69 M24.5,58 C23.6710973,58 23,58.6719457 23,59.5 C23,60.3289027 23.6710973,61 24.5,61 C25.3289027,61 26,60.3289027 26,59.5 C26,58.6719457 25.3289027,58 24.5,58 M24.5,46 C23.6710973,46 23,46.6719457 23,47.5 C23,48.3289027 23.6710973,49 24.5,49 C25.3289027,49 26,48.3289027 26,47.5 C26,46.6719457 25.3289027,46 24.5,46 M24.5,34 C23.6710973,34 23,34.6719457 23,35.5 C23,36.3289027 23.6710973,37 24.5,37 C25.3289027,37 26,36.3289027 26,35.5 C26,34.6719457 25.3289027,34 24.5,34 M24.5,23 C23.6710973,23 23,23.6719457 23,24.5 C23,25.3289027 23.6710973,26 24.5,26 C25.3289027,26 26,25.3289027 26,24.5 C26,23.6719457 25.3289027,23 24.5,23 M24.5,11 C23.6710973,11 23,11.6719457 23,12.5 C23,13.3289027 23.6710973,14 24.5,14 C25.3289027,14 26,13.3289027 26,12.5 C26,11.6719457 25.3289027,11 24.5,11 M24.5,0 C23.6710973,0 23,0.671945701 23,1.5 C23,2.32890271 23.6710973,3 24.5,3 C25.3289027,3 26,2.32890271 26,1.5 C26,0.671945701 25.3289027,0 24.5,0 M35.5,104 C34.6710973,104 34,104.671946 34,105.500848 C34,106.328054 34.6710973,107 35.5,107 C36.3289027,107 37,106.328054 37,105.500848 C37,104.671946 36.3289027,104 35.5,104 M35.5,92 C34.6710973,92 34,92.6719457 34,93.5008484 C34,94.3280543 34.6710973,95 35.5,95 C36.3289027,95 37,94.3280543 37,93.5008484 C37,92.6719457 36.3289027,92 35.5,92 M35.5,81 C34.6710973,81 34,81.6719457 34,82.5008484 C34,83.3280543 34.6710973,84 35.5,84 C36.3289027,84 37,83.3280543 37,82.5008484 C37,81.6719457 36.3289027,81 35.5,81 M35.5,69 C34.6710973,69 34,69.6719457 34,70.5 C34,71.3289027 34.6710973,72 35.5,72 C36.3289027,72 37,71.3289027 37,70.5 C37,69.6719457 36.3289027,69 35.5,69 M35.5,58 C34.6710973,58 34,58.6719457 34,59.5 C34,60.3289027 34.6710973,61 35.5,61 C36.3289027,61 37,60.3289027 37,59.5 C37,58.6719457 36.3289027,58 35.5,58 M35.5,46 C34.6710973,46 34,46.6719457 34,47.5 C34,48.3289027 34.6710973,49 35.5,49 C36.3289027,49 37,48.3289027 37,47.5 C37,46.6719457 36.3289027,46 35.5,46 M35.5,34 C34.6710973,34 34,34.6719457 34,35.5 C34,36.3289027 34.6710973,37 35.5,37 C36.3289027,37 37,36.3289027 37,35.5 C37,34.6719457 36.3289027,34 35.5,34 M35.5,23 C34.6710973,23 34,23.6719457 34,24.5 C34,25.3289027 34.6710973,26 35.5,26 C36.3289027,26 37,25.3289027 37,24.5 C37,23.6719457 36.3289027,23 35.5,23 M35.5,11 C34.6710973,11 34,11.6719457 34,12.5 C34,13.3289027 34.6710973,14 35.5,14 C36.3289027,14 37,13.3289027 37,12.5 C37,11.6719457 36.3289027,11 35.5,11 M35.5,0 C34.6710973,0 34,0.671945701 34,1.5 C34,2.32890271 34.6710973,3 35.5,3 C36.3289027,3 37,2.32890271 37,1.5 C37,0.671945701 36.3289027,0 35.5,0 M47.5,104 C46.6710973,104 46,104.671946 46,105.500848 C46,106.328054 46.6710973,107 47.5,107 C48.3289027,107 49,106.328054 49,105.500848 C49,104.671946 48.3289027,104 47.5,104 M47.5,92 C46.6710973,92 46,92.6719457 46,93.5008484 C46,94.3280543 46.6710973,95 47.5,95 C48.3289027,95 49,94.3280543 49,93.5008484 C49,92.6719457 48.3289027,92 47.5,92 M47.5,81 C46.6710973,81 46,81.6719457 46,82.5008484 C46,83.3280543 46.6710973,84 47.5,84 C48.3289027,84 49,83.3280543 49,82.5008484 C49,81.6719457 48.3289027,81 47.5,81 M47.5,69 C46.6710973,69 46,69.6719457 46,70.5 C46,71.3289027 46.6710973,72 47.5,72 C48.3289027,72 49,71.3289027 49,70.5 C49,69.6719457 48.3289027,69 47.5,69 M47.5,58 C46.6710973,58 46,58.6719457 46,59.5 C46,60.3289027 46.6710973,61 47.5,61 C48.3289027,61 49,60.3289027 49,59.5 C49,58.6719457 48.3289027,58 47.5,58 M47.5,46 C46.6710973,46 46,46.6719457 46,47.5 C46,48.3289027 46.6710973,49 47.5,49 C48.3289027,49 49,48.3289027 49,47.5 C49,46.6719457 48.3289027,46 47.5,46 M47.5,34 C46.6710973,34 46,34.6719457 46,35.5 C46,36.3289027 46.6710973,37 47.5,37 C48.3289027,37 49,36.3289027 49,35.5 C49,34.6719457 48.3289027,34 47.5,34 M47.5,23 C46.6710973,23 46,23.6719457 46,24.5 C46,25.3289027 46.6710973,26 47.5,26 C48.3289027,26 49,25.3289027 49,24.5 C49,23.6719457 48.3289027,23 47.5,23 M47.5,11 C46.6710973,11 46,11.6719457 46,12.5 C46,13.3289027 46.6710973,14 47.5,14 C48.3289027,14 49,13.3289027 49,12.5 C49,11.6719457 48.3289027,11 47.5,11 M47.5,0 C46.6710973,0 46,0.671945701 46,1.5 C46,2.32890271 46.6710973,3 47.5,3 C48.3289027,3 49,2.32890271 49,1.5 C49,0.671945701 48.3289027,0 47.5,0 M59.5,104 C58.6710973,104 58,104.671946 58,105.500848 C58,106.328054 58.6710973,107 59.5,107 C60.3289027,107 61,106.328054 61,105.500848 C61,104.671946 60.3289027,104 59.5,104 M59.5,92 C58.6710973,92 58,92.6719457 58,93.5008484 C58,94.3280543 58.6710973,95 59.5,95 C60.3289027,95 61,94.3280543 61,93.5008484 C61,92.6719457 60.3289027,92 59.5,92 M59.5,81 C58.6710973,81 58,81.6719457 58,82.5008484 C58,83.3280543 58.6710973,84 59.5,84 C60.3289027,84 61,83.3280543 61,82.5008484 C61,81.6719457 60.3289027,81 59.5,81 M59.5,69 C58.6710973,69 58,69.6719457 58,70.5 C58,71.3289027 58.6710973,72 59.5,72 C60.3289027,72 61,71.3289027 61,70.5 C61,69.6719457 60.3289027,69 59.5,69 M59.5,58 C58.6710973,58 58,58.6719457 58,59.5 C58,60.3289027 58.6710973,61 59.5,61 C60.3289027,61 61,60.3289027 61,59.5 C61,58.6719457 60.3289027,58 59.5,58 M59.5,46 C58.6710973,46 58,46.6719457 58,47.5 C58,48.3289027 58.6710973,49 59.5,49 C60.3289027,49 61,48.3289027 61,47.5 C61,46.6719457 60.3289027,46 59.5,46 M59.5,34 C58.6710973,34 58,34.6719457 58,35.5 C58,36.3289027 58.6710973,37 59.5,37 C60.3289027,37 61,36.3289027 61,35.5 C61,34.6719457 60.3289027,34 59.5,34 M59.5,23 C58.6710973,23 58,23.6719457 58,24.5 C58,25.3289027 58.6710973,26 59.5,26 C60.3289027,26 61,25.3289027 61,24.5 C61,23.6719457 60.3289027,23 59.5,23 M59.5,11 C58.6710973,11 58,11.6719457 58,12.5 C58,13.3289027 58.6710973,14 59.5,14 C60.3289027,14 61,13.3289027 61,12.5 C61,11.6719457 60.3289027,11 59.5,11 M59.5,0 C58.6710973,0 58,0.671945701 58,1.5 C58,2.32890271 58.6710973,3 59.5,3 C60.3289027,3 61,2.32890271 61,1.5 C61,0.671945701 60.3289027,0 59.5,0 M70.5,104 C69.6710973,104 69,104.671946 69,105.500848 C69,106.328054 69.6710973,107 70.5,107 C71.3289027,107 72,106.328054 72,105.500848 C72,104.671946 71.3289027,104 70.5,104 M70.5,92 C69.6710973,92 69,92.6719457 69,93.5008484 C69,94.3280543 69.6710973,95 70.5,95 C71.3289027,95 72,94.3280543 72,93.5008484 C72,92.6719457 71.3289027,92 70.5,92 M70.5,81 C69.6710973,81 69,81.6719457 69,82.5008484 C69,83.3280543 69.6710973,84 70.5,84 C71.3289027,84 72,83.3280543 72,82.5008484 C72,81.6719457 71.3289027,81 70.5,81 M70.5,69 C69.6710973,69 69,69.6719457 69,70.5 C69,71.3289027 69.6710973,72 70.5,72 C71.3289027,72 72,71.3289027 72,70.5 C72,69.6719457 71.3289027,69 70.5,69 M70.5,58 C69.6710973,58 69,58.6719457 69,59.5 C69,60.3289027 69.6710973,61 70.5,61 C71.3289027,61 72,60.3289027 72,59.5 C72,58.6719457 71.3289027,58 70.5,58 M70.5,46 C69.6710973,46 69,46.6719457 69,47.5 C69,48.3289027 69.6710973,49 70.5,49 C71.3289027,49 72,48.3289027 72,47.5 C72,46.6719457 71.3289027,46 70.5,46 M70.5,34 C69.6710973,34 69,34.6719457 69,35.5 C69,36.3289027 69.6710973,37 70.5,37 C71.3289027,37 72,36.3289027 72,35.5 C72,34.6719457 71.3289027,34 70.5,34 M70.5,23 C69.6710973,23 69,23.6719457 69,24.5 C69,25.3289027 69.6710973,26 70.5,26 C71.3289027,26 72,25.3289027 72,24.5 C72,23.6719457 71.3289027,23 70.5,23 M70.5,11 C69.6710973,11 69,11.6719457 69,12.5 C69,13.3289027 69.6710973,14 70.5,14 C71.3289027,14 72,13.3289027 72,12.5 C72,11.6719457 71.3289027,11 70.5,11 M70.5,0 C69.6710973,0 69,0.671945701 69,1.5 C69,2.32890271 69.6710973,3 70.5,3 C71.3289027,3 72,2.32890271 72,1.5 C72,0.671945701 71.3289027,0 70.5,0 M82.5,104 C81.6710973,104 81,104.671946 81,105.500848 C81,106.328054 81.6710973,107 82.5,107 C83.3289027,107 84,106.328054 84,105.500848 C84,104.671946 83.3289027,104 82.5,104 M82.5,92 C81.6710973,92 81,92.6719457 81,93.5008484 C81,94.3280543 81.6710973,95 82.5,95 C83.3289027,95 84,94.3280543 84,93.5008484 C84,92.6719457 83.3289027,92 82.5,92 M82.5,81 C81.6710973,81 81,81.6719457 81,82.5008484 C81,83.3280543 81.6710973,84 82.5,84 C83.3289027,84 84,83.3280543 84,82.5008484 C84,81.6719457 83.3289027,81 82.5,81 M82.5,69 C81.6710973,69 81,69.6719457 81,70.5 C81,71.3289027 81.6710973,72 82.5,72 C83.3289027,72 84,71.3289027 84,70.5 C84,69.6719457 83.3289027,69 82.5,69 M82.5,58 C81.6710973,58 81,58.6719457 81,59.5 C81,60.3289027 81.6710973,61 82.5,61 C83.3289027,61 84,60.3289027 84,59.5 C84,58.6719457 83.3289027,58 82.5,58 M82.5,46 C81.6710973,46 81,46.6719457 81,47.5 C81,48.3289027 81.6710973,49 82.5,49 C83.3289027,49 84,48.3289027 84,47.5 C84,46.6719457 83.3289027,46 82.5,46 M82.5,34 C81.6710973,34 81,34.6719457 81,35.5 C81,36.3289027 81.6710973,37 82.5,37 C83.3289027,37 84,36.3289027 84,35.5 C84,34.6719457 83.3289027,34 82.5,34 M82.5,23 C81.6710973,23 81,23.6719457 81,24.5 C81,25.3289027 81.6710973,26 82.5,26 C83.3289027,26 84,25.3289027 84,24.5 C84,23.6719457 83.3289027,23 82.5,23 M82.5,11 C81.6710973,11 81,11.6719457 81,12.5 C81,13.3289027 81.6710973,14 82.5,14 C83.3289027,14 84,13.3289027 84,12.5 C84,11.6719457 83.3289027,11 82.5,11 M82.5,0 C81.6710973,0 81,0.671945701 81,1.5 C81,2.32890271 81.6710973,3 82.5,3 C83.3289027,3 84,2.32890271 84,1.5 C84,0.671945701 83.3289027,0 82.5,0 M93.5,104 C92.6710973,104 92,104.671946 92,105.500848 C92,106.328054 92.6710973,107 93.5,107 C94.3289027,107 95,106.328054 95,105.500848 C95,104.671946 94.3289027,104 93.5,104 M93.5,92 C92.6710973,92 92,92.6719457 92,93.5008484 C92,94.3280543 92.6710973,95 93.5,95 C94.3289027,95 95,94.3280543 95,93.5008484 C95,92.6719457 94.3289027,92 93.5,92 M93.5,81 C92.6710973,81 92,81.6719457 92,82.5008484 C92,83.3280543 92.6710973,84 93.5,84 C94.3289027,84 95,83.3280543 95,82.5008484 C95,81.6719457 94.3289027,81 93.5,81 M93.5,69 C92.6710973,69 92,69.6719457 92,70.5 C92,71.3289027 92.6710973,72 93.5,72 C94.3289027,72 95,71.3289027 95,70.5 C95,69.6719457 94.3289027,69 93.5,69 M93.5,58 C92.6710973,58 92,58.6719457 92,59.5 C92,60.3289027 92.6710973,61 93.5,61 C94.3289027,61 95,60.3289027 95,59.5 C95,58.6719457 94.3289027,58 93.5,58 M93.5,46 C92.6710973,46 92,46.6719457 92,47.5 C92,48.3289027 92.6710973,49 93.5,49 C94.3289027,49 95,48.3289027 95,47.5 C95,46.6719457 94.3289027,46 93.5,46 M93.5,34 C92.6710973,34 92,34.6719457 92,35.5 C92,36.3289027 92.6710973,37 93.5,37 C94.3289027,37 95,36.3289027 95,35.5 C95,34.6719457 94.3289027,34 93.5,34 M93.5,23 C92.6710973,23 92,23.6719457 92,24.5 C92,25.3289027 92.6710973,26 93.5,26 C94.3289027,26 95,25.3289027 95,24.5 C95,23.6719457 94.3289027,23 93.5,23 M93.5,11 C92.6710973,11 92,11.6719457 92,12.5 C92,13.3289027 92.6710973,14 93.5,14 C94.3289027,14 95,13.3289027 95,12.5 C95,11.6719457 94.3289027,11 93.5,11 M93.5,0 C92.6710973,0 92,0.671945701 92,1.5 C92,2.32890271 92.6710973,3 93.5,3 C94.3289027,3 95,2.32890271 95,1.5 C95,0.671945701 94.3289027,0 93.5,0 M105.5,104 C104.671097,104 104,104.671946 104,105.500848 C104,106.328054 104.671097,107 105.5,107 C106.328903,107 107,106.328054 107,105.500848 C107,104.671946 106.328903,104 105.5,104 M105.5,92 C104.671097,92 104,92.6719457 104,93.5008484 C104,94.3280543 104.671097,95 105.5,95 C106.328903,95 107,94.3280543 107,93.5008484 C107,92.6719457 106.328903,92 105.5,92 M105.5,81 C104.671097,81 104,81.6719457 104,82.5008484 C104,83.3280543 104.671097,84 105.5,84 C106.328903,84 107,83.3280543 107,82.5008484 C107,81.6719457 106.328903,81 105.5,81 M105.5,69 C104.671097,69 104,69.6719457 104,70.5 C104,71.3289027 104.671097,72 105.5,72 C106.328903,72 107,71.3289027 107,70.5 C107,69.6719457 106.328903,69 105.5,69 M105.5,58 C104.671097,58 104,58.6719457 104,59.5 C104,60.3289027 104.671097,61 105.5,61 C106.328903,61 107,60.3289027 107,59.5 C107,58.6719457 106.328903,58 105.5,58 M105.5,46 C104.671097,46 104,46.6719457 104,47.5 C104,48.3289027 104.671097,49 105.5,49 C106.328903,49 107,48.3289027 107,47.5 C107,46.6719457 106.328903,46 105.5,46 M105.5,34 C104.671097,34 104,34.6719457 104,35.5 C104,36.3289027 104.671097,37 105.5,37 C106.328903,37 107,36.3289027 107,35.5 C107,34.6719457 106.328903,34 105.5,34 M105.5,23 C104.671097,23 104,23.6719457 104,24.5 C104,25.3289027 104.671097,26 105.5,26 C106.328903,26 107,25.3289027 107,24.5 C107,23.6719457 106.328903,23 105.5,23 M105.5,11 C104.671097,11 104,11.6719457 104,12.5 C104,13.3289027 104.671097,14 105.5,14 C106.328903,14 107,13.3289027 107,12.5 C107,11.6719457 106.328903,11 105.5,11 M105.5,0 C104.671097,0 104,0.671945701 104,1.5 C104,2.32890271 104.671097,3 105.5,3 C106.328903,3 107,2.32890271 107,1.5 C107,0.671945701 106.328903,0 105.5,0" id="Elements/dots/Square"></path>
                    </g>
                </g>
            </g>
        </g>
    </g>
</svg>